<svg width="264" height="76" viewBox="0 0 264 76" fill="none" xmlns="http://www.w3.org/2000/svg">
<g clip-path="url(#clip0)">
<path d="M35.1519 3.30436C35.5642 4.02718 35.6673 4.75001 35.7704 5.5761C35.7704 6.40218 35.6673 7.12501 35.4612 7.9511C35.255 8.77718 34.9457 9.50001 34.6365 10.3261C34.3272 11.0489 33.9149 11.7717 33.5025 12.3913C32.6779 13.6304 31.8532 14.8696 30.9254 16.0054C29.9977 17.1413 28.9668 18.2772 27.936 19.4131C27.7298 19.7228 27.4205 19.9294 27.2144 20.2391C27.0082 20.4457 26.5959 20.6522 26.2866 20.8587C26.0804 20.962 25.7712 21.0652 25.4619 20.962C25.1527 20.962 24.8434 20.8587 24.6373 20.8587C24.0187 20.6522 23.6064 20.3424 23.1941 19.9294C22.7817 19.5163 22.5756 19 22.6786 18.3804C22.6786 17.9674 22.7817 17.6576 23.091 17.4511C23.2971 17.2446 23.6064 16.9348 23.8126 16.7283L25.1527 15.1794C25.6681 14.5598 26.0804 14.0435 26.5959 13.4239C27.0082 12.8044 27.5236 12.2881 27.936 11.6685C28.3483 11.0489 28.7606 10.4294 29.0699 9.91305C29.4822 9.29349 29.7915 8.67392 30.1007 7.9511C30.5131 6.71197 30.6162 5.78262 30.5131 5.26631C30.41 4.75001 30.1007 4.44023 29.5853 4.44023C29.0699 4.44023 28.5545 4.54349 27.8329 4.95653C27.1113 5.26631 26.3897 5.67936 25.565 6.19566C24.2249 7.02175 22.8848 8.05436 21.7509 9.19023C20.6169 10.3261 19.5861 11.5652 18.6583 12.9076C18.1429 13.5272 17.7306 14.25 17.4213 14.8696C17.1121 15.5924 16.8028 16.3152 16.5966 17.0381C16.3905 17.7609 16.3905 18.4837 16.3905 19.3098C16.4936 20.1359 16.8028 20.7554 17.4213 21.2718C17.9367 21.6848 18.5553 21.8913 19.3799 21.9946C20.2046 21.9946 20.9262 22.2011 21.5447 22.5109C22.7817 23.0272 23.7095 23.8533 24.5342 24.9891C25.4619 26.3315 25.8743 27.7772 25.7712 29.4294C25.6681 31.0815 25.3588 32.6304 24.8434 34.0761C24.328 35.5218 23.7095 36.8641 22.8848 38.1033C22.0601 39.4457 21.1324 40.5815 20.1015 41.7174C19.0707 42.8533 17.8337 43.7826 16.5966 44.6087C15.2565 45.4348 13.9164 45.9511 12.4733 46.2609C11.0301 46.5707 9.58688 46.6739 8.04061 46.4674C6.49434 46.2609 5.05115 45.7446 3.91722 44.9185C2.68021 44.1957 1.75244 43.1631 1.13394 41.9239C0.515427 40.6848 0.103088 39.3424 0.103088 37.8968C0.103088 36.2446 0.309258 34.6957 0.927766 33.25C1.44319 31.7011 2.26787 30.3587 3.09255 29.0163C3.71105 27.8804 4.7419 26.7446 5.87583 25.8152C6.39126 25.4022 7.00976 24.9891 7.62827 24.7826C8.24678 24.5761 8.86529 24.5761 9.58688 24.8859C10.1023 25.0924 10.5146 25.4022 10.927 25.9185C11.3393 26.4348 11.3393 26.9511 11.2362 27.4674C11.1332 27.7772 11.0301 28.087 10.8239 28.2935C10.6177 28.5 10.3085 28.6033 10.1023 28.8098C9.68997 29.0163 9.38071 29.3261 9.07146 29.5326C8.86529 29.9457 8.55604 30.1522 8.24678 30.462C7.21593 31.5978 6.39126 33.0435 5.77275 34.6957C5.15424 36.3478 4.94807 37.8968 5.25732 39.4457C5.46349 40.2718 5.87583 40.8913 6.39126 41.3044C6.90668 41.7174 7.62827 41.9239 8.45295 42.1304C9.17454 42.2337 9.99922 42.1304 10.7208 41.9239C11.4424 41.7174 12.164 41.4076 12.8856 41.0978C14.2257 40.2717 15.4627 39.2391 16.5966 38C17.7306 36.7609 18.5553 35.4185 19.2768 34.0761C19.7923 33.0435 20.3077 31.8044 20.6169 30.5652C20.9262 29.3261 20.9262 28.087 20.4108 26.9511C20.2046 26.5381 19.9984 26.3315 19.6892 26.2283C19.3799 26.125 19.0707 26.0218 18.6583 26.0218C17.3182 25.8152 15.9781 25.4022 14.8442 24.5761C13.7103 23.8533 12.7825 22.7174 12.164 21.4783C11.4424 20.0326 11.2362 18.587 11.4424 16.9348C11.6486 15.2826 12.164 13.837 12.8856 12.4946C13.6072 11.0489 14.5349 9.60327 15.5658 8.36414C16.5966 7.12501 17.7306 5.98914 18.9676 4.85327C20.2046 3.7174 21.4416 2.78805 22.8848 1.96197C24.328 1.13588 25.8743 0.619574 27.4205 0.206531C29.0699 -0.103252 30.6162 -0.103252 31.9563 0.413053C33.3995 0.929357 34.4303 1.85871 35.1519 3.30436Z" fill="#E0FBFC"/>
<path d="M29.9976 42.0272C28.9668 40.7881 28.3483 39.4457 28.2452 37.8968C28.1421 36.3479 28.3483 34.799 28.7606 33.2501C29.276 31.8044 29.7915 30.5653 30.6162 29.3262C31.3377 28.087 32.1624 26.8479 33.0902 25.8153C34.0179 24.6794 35.0488 23.6468 36.0796 22.7175C37.1105 21.7881 38.2444 20.8588 39.2753 20.1359C40.0999 19.5164 41.0277 19.0001 42.1616 18.4838C43.2956 17.9675 44.5326 17.5544 45.7696 17.2446C47.0066 16.9348 48.1406 16.9348 49.2745 17.1414C50.4084 17.3479 51.2331 17.8642 51.9547 18.8968C52.5732 19.7229 52.7794 20.6522 52.5732 21.6848C52.367 22.7175 52.0578 23.6468 51.6454 24.5762C50.7177 26.4348 49.4807 28.087 47.9344 29.6359C46.3881 31.1848 44.6357 32.424 42.8832 33.3533C41.44 34.0762 40.0999 34.4892 38.5537 34.799C37.1105 35.1088 35.5642 35.0055 34.121 34.5925C33.9149 35.212 33.7087 35.7283 33.6056 36.2446C33.5025 36.7609 33.5025 37.2772 33.6056 37.7935C33.7087 38.3098 33.9149 38.7229 34.2241 39.1359C34.5334 39.549 35.0488 39.8588 35.7704 39.962C37.0074 40.2718 38.4506 40.0653 40.0999 39.3425C41.6462 38.6196 43.1925 37.587 44.7388 36.4512C46.285 35.212 47.6251 33.9729 48.9652 32.7338C50.2022 31.3914 51.2331 30.3588 51.8516 29.6359C52.1609 29.2229 52.4701 28.8098 52.7794 28.3968C53.0886 27.9838 53.501 27.5707 53.9133 27.3642C54.3256 27.1577 54.738 27.1577 55.1503 27.1577C55.5627 27.2609 55.975 27.3642 56.2842 27.674C56.5935 27.9838 56.7997 28.2935 57.0058 28.6033C57.212 29.0164 57.212 29.3262 57.1089 29.7392C57.0058 30.1522 56.7997 30.6685 56.3873 31.0816C55.975 31.4946 55.6657 32.0109 55.3565 32.3207C53.604 34.2827 52.2639 35.7283 51.3362 36.6577C50.4084 37.587 49.4807 38.4131 48.7591 39.0327C47.6251 40.0653 46.1819 40.9946 44.5326 42.0272C42.8832 42.9566 41.2339 43.7827 39.4814 44.1957C37.729 44.712 36.0796 44.8153 34.3272 44.6088C32.6778 44.1957 31.2347 43.4729 29.9976 42.0272ZM38.6568 30.049C40.5123 29.5327 42.0586 28.7066 43.5017 27.4675C44.9449 26.2283 46.1819 24.9892 47.1097 23.6468C47.419 23.1305 47.7282 22.6142 47.8313 22.0979C47.9344 21.5816 47.9344 21.2718 47.6251 21.1685C46.3881 21.6848 45.1511 22.2012 44.1202 23.0272C42.9863 23.7501 41.9555 24.5762 41.0277 25.5055C39.3784 26.9512 37.9352 28.6033 36.6981 30.2555C37.3167 30.3588 37.9352 30.2555 38.6568 30.049Z" fill="#E0FBFC"/>
<path d="M51.13 40.0652C50.4084 38.9294 49.9961 37.6902 50.0992 36.2446C50.0992 34.9022 50.4084 33.5598 50.8208 32.3207C51.7485 29.8424 53.0886 27.4674 54.738 25.4022C56.3873 23.2337 58.0367 21.1685 59.583 19.2066C59.8922 18.6902 60.3046 18.2772 60.6138 17.8642C61.0262 17.4511 61.3354 17.0381 61.7478 16.5218C62.5724 15.6957 63.3971 15.5924 64.3249 16.0055C65.2526 16.5218 65.8711 17.2446 66.0773 18.2772C66.1804 18.6902 66.1804 19 66.0773 19.2066C66.0773 19.4131 65.8711 19.7229 65.665 20.0326C64.0156 22.3044 62.3663 24.3696 60.82 26.3316C59.1706 28.2935 57.8305 30.3587 56.4904 32.6305C55.8719 33.5598 55.4596 34.4892 55.3565 35.3153C55.2534 36.1413 55.2534 36.7609 55.4596 37.1739C55.6657 37.587 56.0781 37.7935 56.7997 37.6903C57.4182 37.587 58.2429 37.1739 59.2737 36.3479C60.2015 35.5218 61.1292 34.6957 62.057 33.8696C62.9848 32.9402 63.8094 32.1142 64.6341 31.1848C65.5619 30.0489 66.4896 28.8098 67.4174 27.5707C67.0051 26.2283 67.0051 24.7826 67.3143 23.2337C67.8298 20.8587 68.9637 18.7935 70.7161 16.9348C71.0254 16.625 71.4377 16.212 71.9531 15.7989C72.4686 15.3859 72.984 15.0761 73.4994 14.8696C74.0148 14.6631 74.6333 14.5598 75.1488 14.5598C75.7673 14.5598 76.2827 14.7663 76.9012 15.1794C77.7259 15.7989 78.0351 16.7283 77.9321 17.9674C77.829 19.2066 77.5197 20.4457 77.0043 21.7881C76.4889 23.1305 75.8704 24.3696 75.1488 25.5055C74.4272 26.6413 73.9118 27.4674 73.4994 27.9837C74.1179 28.1902 74.6333 28.1903 75.2518 28.087C75.8704 27.9837 76.3858 27.7772 76.9012 27.4674C77.5197 27.1576 77.9321 26.7446 78.3444 26.3316C78.7567 25.9185 79.1691 25.4022 79.6845 24.9892C80.1999 24.5761 80.7153 24.3696 81.4369 24.3696C82.0554 24.4729 82.5709 24.6794 82.9832 25.1957C83.3955 25.8152 83.6017 26.4348 83.2925 27.0544C83.0863 27.6739 82.777 28.1903 82.2616 28.6033C81.3339 29.6359 80.303 30.462 79.066 31.1848C77.829 31.9076 76.592 32.3207 75.1488 32.4239C73.6025 32.5272 72.0562 32.3207 70.7161 31.5979C69.5822 33.0435 68.4483 34.3859 67.2112 35.625C65.9742 36.9674 64.6341 38.1033 63.294 39.2392C62.3663 39.962 61.4385 40.5816 60.3046 41.0979C59.1706 41.6142 58.0367 42.0272 56.9028 42.2337C55.7688 42.4403 54.738 42.337 53.7071 42.0272C52.6763 41.9239 51.7485 41.2011 51.13 40.0652Z" fill="#E0FBFC"/>
<path d="M79.066 37.5869C78.0352 36.3478 77.4166 35.0054 77.3136 33.4565C77.2105 31.9076 77.4166 30.3587 77.829 28.8098C78.3444 27.3641 78.8598 26.125 79.6845 24.8858C80.5092 23.6467 81.2308 22.4076 82.1585 21.375C83.0863 20.2391 84.1172 19.2065 85.148 18.2772C86.1788 17.3478 87.3128 16.4185 88.3436 15.6956C89.1683 15.0761 90.0961 14.5598 91.23 14.0435C92.3639 13.5271 93.6009 13.1141 94.838 12.8043C96.075 12.4945 97.2089 12.4945 98.3428 12.7011C99.4768 12.9076 100.301 13.5271 101.023 14.4565C101.642 15.2826 101.848 16.2119 101.642 17.2445C101.435 18.2772 101.126 19.2065 100.714 20.1358C99.786 21.9945 98.549 23.6467 97.0027 25.1956C95.4565 26.7445 93.704 27.9837 91.9516 28.913C90.5084 29.6358 89.1683 30.0489 87.622 30.3587C86.1788 30.6685 84.6326 30.5652 83.1894 30.1522C82.9832 30.7717 82.777 31.288 82.674 31.8043C82.5709 32.3206 82.5709 32.8369 82.674 33.3532C82.777 33.8695 82.9832 34.2826 83.2925 34.6956C83.6017 35.1087 84.1172 35.4185 84.8387 35.5217C86.0758 35.8315 87.5189 35.625 89.1683 34.9021C90.7146 34.1793 92.2608 33.1467 93.8071 32.0108C95.3534 30.7717 96.6935 29.5326 98.0336 28.2935C99.2706 26.9511 100.301 25.9185 100.92 25.1956C101.229 24.7826 101.538 24.3695 101.848 23.9565C102.157 23.5435 102.569 23.1304 102.982 22.9239C103.394 22.7174 103.806 22.7174 104.219 22.7174C104.631 22.8206 105.043 22.9239 105.353 23.2337C105.662 23.5435 105.868 23.8532 106.074 24.163C106.28 24.5761 106.28 24.8858 106.177 25.2989C106.074 25.7119 105.868 26.2282 105.456 26.6413C105.043 27.0543 104.734 27.5706 104.425 27.8804C102.672 29.8424 101.332 31.288 100.405 32.2174C99.4768 33.1467 98.549 33.9728 97.8274 34.5924C96.6935 35.625 95.2503 36.5543 93.601 37.5869C91.9516 38.6195 90.3022 39.3424 88.5498 39.7554C86.7974 40.2717 85.148 40.375 83.3956 40.1685C81.7462 39.7554 80.303 38.9293 79.066 37.5869ZM87.7251 25.6087C89.5806 25.0924 91.1269 24.2663 92.5701 23.0271C94.0133 21.788 95.2503 20.5489 96.1781 19.2065C96.4873 18.6902 96.7966 18.1739 96.8997 17.6576C97.0027 17.1413 97.0027 16.8315 96.6935 16.7282C95.4565 17.2445 94.2195 17.7608 93.1886 18.5869C92.0547 19.3098 91.0238 20.1358 90.0961 21.0652C88.4467 22.5108 87.0035 24.163 85.7665 25.8152C86.385 25.8152 87.0035 25.8152 87.7251 25.6087Z" fill="#E0FBFC"/>
<path d="M116.589 36.9674C115.455 37.0706 114.527 36.9674 113.702 36.5543C112.981 36.1413 112.362 35.5217 111.95 34.7989C111.538 34.0761 111.435 33.1467 111.332 32.2174C111.228 31.288 111.435 30.3587 111.847 29.5326C112.465 27.4674 113.496 25.7119 114.836 23.9565C116.177 22.3043 117.517 20.6521 118.754 19C118.96 18.7934 119.269 18.3804 119.784 17.8641C120.3 17.2445 120.712 16.7282 121.125 16.1087C121.537 15.5924 121.743 15.0761 121.846 14.7663C121.949 14.4565 121.64 14.4565 121.021 14.663C119.888 15.1793 118.857 15.7989 117.826 16.4184C116.795 17.1413 115.764 17.8641 114.836 18.6902C113.806 19.6195 112.672 20.6521 111.641 21.5815C110.61 22.6141 109.682 23.6467 108.754 24.6793C108.239 25.2989 107.62 26.0217 107.002 26.9511C106.383 27.8804 105.765 28.8098 105.146 29.7391C104.528 30.6684 103.909 31.7011 103.291 32.6304C102.672 33.663 102.157 34.4891 101.642 35.3152C101.435 35.625 101.229 35.9348 101.126 36.3478C101.023 36.6576 100.714 36.9674 100.405 37.1739C99.6829 37.4837 98.8583 37.4837 98.0336 37.1739C97.2089 36.8641 96.5904 36.3478 96.2811 35.625C96.075 35.2119 96.075 34.9021 96.1781 34.4891C96.2811 34.0761 96.4873 33.7663 96.5904 33.4565L98.0336 30.3587C98.549 29.2228 99.1675 28.0869 99.786 26.9511C100.405 25.8152 101.229 24.4728 102.054 23.1304C102.879 21.788 103.909 20.2391 105.146 18.4837C106.28 16.7282 107.724 14.7663 109.27 12.5978C109.476 12.3913 109.682 12.1848 109.888 11.9782C110.095 11.7717 110.301 11.5652 110.507 11.4619C111.332 11.0489 112.156 11.1521 112.878 11.7717C113.702 12.3913 114.115 13.1141 114.321 13.9402C115.455 13.0108 116.692 12.0815 118.032 11.3587C119.269 10.6358 120.712 10.0163 122.362 9.60323C123.496 9.39671 124.423 9.29345 125.042 9.60323C125.763 9.80975 126.279 10.2228 126.691 10.7391C127.207 11.2554 127.516 11.875 127.619 12.4945C127.722 13.1141 127.722 13.7337 127.516 14.4565C127.413 15.0761 127.103 15.6956 126.794 16.3152C126.485 16.9348 126.176 17.4511 125.866 18.0706C124.629 20.0326 123.186 21.8913 121.743 23.5434C120.3 25.1956 118.96 26.9511 117.826 28.8098C117.62 29.1195 117.414 29.5326 117.207 29.9456C117.001 30.3587 116.795 30.7717 116.692 31.1848C116.589 31.5978 116.589 31.8043 116.589 32.0108C116.692 32.2174 116.898 32.2174 117.31 31.9076C117.929 31.5978 118.547 31.1848 119.269 30.5652C119.991 30.0489 120.609 29.4293 121.331 28.7065C121.949 28.0869 122.568 27.3641 123.186 26.6413C123.805 25.9184 124.423 25.2989 124.939 24.5761L127 22.0978C127.31 21.788 127.516 21.375 127.825 20.9619C128.134 20.5489 128.547 20.2391 128.959 19.9293C129.681 19.5163 130.505 19.6195 131.227 20.0326C131.948 20.4456 132.258 21.1684 132.155 21.9945C132.052 22.5108 131.948 22.9239 131.639 23.3369C131.33 23.6467 131.021 24.0598 130.711 24.4728L128.65 26.9511C128.031 27.6739 127.413 28.5 126.691 29.2228C126.073 29.9456 125.351 30.6684 124.629 31.3913C123.496 32.6304 122.258 33.7663 120.815 34.7989C119.991 36.038 118.341 36.7608 116.589 36.9674Z" fill="#E0FBFC"/>
<path d="M158.441 32.837C158.854 33.5598 158.957 34.2826 159.06 35.1087C159.06 35.9348 158.957 36.6576 158.75 37.4837C158.544 38.3098 158.235 39.0326 157.926 39.8587C157.617 40.5815 157.204 41.3043 156.792 41.9239C155.967 43.163 155.143 44.4022 154.215 45.538C153.287 46.6739 152.256 47.8098 151.225 48.9457C151.019 49.2554 150.71 49.462 150.504 49.7717C150.298 49.9783 149.885 50.1848 149.576 50.3913C149.37 50.4946 149.061 50.5978 148.751 50.4946C148.442 50.4946 148.133 50.3913 147.927 50.3913C147.308 50.1848 146.896 49.875 146.483 49.462C146.071 49.0489 145.865 48.5326 145.968 47.913C145.968 47.5 146.071 47.1902 146.38 46.9837C146.586 46.7772 146.896 46.4674 147.102 46.2609L148.442 44.712C148.957 44.0924 149.37 43.5761 149.885 42.9565C150.298 42.337 150.813 41.8207 151.225 41.2011C151.638 40.5815 152.05 39.962 152.359 39.4457C152.772 38.8261 153.081 38.2065 153.39 37.4837C153.802 36.2446 153.906 35.3152 153.802 34.7989C153.699 34.2826 153.39 33.9728 152.875 33.9728C152.359 33.9728 151.844 34.0761 151.122 34.4891C150.401 34.7989 149.679 35.212 148.854 35.7283C147.514 36.5543 146.174 37.587 145.04 38.7228C143.906 39.8587 142.875 41.0978 141.948 42.4402C141.432 43.0598 141.02 43.7826 140.711 44.4022C140.401 45.125 140.092 45.8478 139.886 46.5707C139.68 47.2935 139.68 48.0163 139.68 48.8424C139.783 49.6685 140.092 50.288 140.711 50.8043C141.226 51.2174 141.845 51.4239 142.669 51.5272C143.494 51.5272 144.216 51.7337 144.834 52.0435C146.071 52.5598 146.999 53.3859 147.824 54.5217C148.751 55.8641 149.164 57.3098 149.061 58.962C148.957 60.6141 148.648 62.163 148.133 63.6087C147.617 65.0543 146.999 66.3967 146.174 67.6359C145.349 68.9783 144.422 70.1141 143.391 71.25C142.36 72.3859 141.123 73.3152 139.886 74.1413C138.546 74.9674 137.206 75.4837 135.763 75.7935C134.319 76.1033 132.876 76.2065 131.33 76C129.784 75.7935 128.34 75.2772 127.207 74.4511C125.97 73.7283 125.042 72.6956 124.423 71.4565C123.805 70.2174 123.392 68.875 123.392 67.4293C123.392 65.7772 123.599 64.2283 124.217 62.7826C124.733 61.2337 125.557 59.8913 126.382 58.5489C127.103 57.413 128.134 56.3804 129.371 55.3478C129.887 54.9348 130.505 54.5217 131.124 54.3152C131.742 54.1087 132.361 54.1087 133.082 54.5217C133.598 54.7283 134.01 55.038 134.422 55.5543C134.835 56.0707 134.835 56.587 134.732 57.1033C134.629 57.413 134.526 57.7228 134.319 57.9293C134.113 58.1359 133.804 58.2391 133.598 58.4456C133.185 58.6522 132.876 58.962 132.567 59.1685C132.258 59.4783 132.052 59.6848 131.742 59.9946C130.711 61.1304 129.887 62.5761 129.268 64.2283C128.547 65.8804 128.444 67.4293 128.753 68.9783C128.959 69.9076 129.371 70.5272 129.887 70.9402C130.402 71.3533 131.124 71.5598 131.948 71.7663C132.67 71.8696 133.495 71.7663 134.216 71.5598C134.938 71.3533 135.66 71.0435 136.381 70.7337C137.721 69.9076 138.958 68.875 140.092 67.6359C141.226 66.3967 142.051 65.0543 142.772 63.712C143.288 62.6793 143.803 61.4402 144.112 60.2011C144.422 58.962 144.422 57.7228 143.906 56.587C143.7 56.1739 143.494 55.9674 143.185 55.8641C142.875 55.7609 142.566 55.6576 142.154 55.6576C140.814 55.4511 139.474 55.038 138.34 54.212C137.206 53.4891 136.278 52.3533 135.66 51.1141C134.938 49.6685 134.732 48.2228 134.938 46.5707C135.144 44.9185 135.66 43.4728 136.381 42.1304C137.103 40.6848 138.03 39.2391 139.061 38C140.092 36.7609 141.226 35.625 142.463 34.4891C143.7 33.3533 144.937 32.4239 146.38 31.5978C147.824 30.7717 149.37 30.2554 150.916 29.8424C152.565 29.5326 154.112 29.5326 155.452 30.0489C156.689 30.462 157.72 31.3913 158.441 32.837Z" fill="#E0FBFC"/>
<path d="M168.853 46.4674C169.987 46.4674 171.018 46.5707 172.048 46.9837C173.079 47.2935 173.801 48.0163 174.213 49.1522C174.419 49.7718 174.626 50.2881 174.522 50.9076C174.522 51.5272 174.419 52.1468 174.316 52.7663C174.213 53.3859 174.007 54.0055 173.698 54.5218C173.389 55.1413 173.182 55.6576 172.873 56.0707C172.564 56.6902 172.152 57.2065 171.739 57.7228C171.327 58.2391 170.914 58.7555 170.605 59.2718C170.296 59.5815 169.884 59.9946 169.471 60.4076C169.059 60.8207 168.544 61.0272 168.028 60.9239C167.513 60.8207 167.1 60.7174 166.688 60.4076C166.276 60.0978 165.966 59.7881 165.657 59.375C165.451 59.0652 165.348 58.7555 165.245 58.3424C165.142 57.9294 165.142 57.5163 165.348 57.2065C165.451 57 165.554 56.6902 165.863 56.4837C166.069 56.2772 166.379 55.9674 166.585 55.7609C167.1 55.2446 167.616 54.7283 168.131 54.212C168.544 53.6957 168.956 53.1794 169.265 52.7663C169.574 52.3533 169.781 51.9402 169.884 51.6305C169.987 51.3207 169.987 51.1141 169.781 51.0109C169.471 50.9076 168.956 51.0109 168.337 51.4239C167.719 51.837 166.997 52.25 166.276 52.8696C165.554 53.3859 164.936 54.0055 164.42 54.5218C163.802 55.0381 163.492 55.4511 163.286 55.6576C161.74 57.2065 160.4 59.0652 159.163 61.0272C158.75 61.75 158.338 62.5761 157.926 63.2989C157.513 64.0218 157.307 64.8478 157.101 65.7772C156.998 66.5 156.895 67.2228 156.998 67.9457C157.101 68.6685 157.513 69.1848 158.235 69.4946C158.854 69.8044 159.575 69.8044 160.4 69.5978C161.225 69.3913 161.843 69.1848 162.462 68.9783C164.214 68.3587 166.069 67.2228 168.028 65.6739C169.884 64.125 172.048 61.9565 174.522 59.1685C174.832 58.7555 175.141 58.3424 175.45 57.9294C175.759 57.5163 176.172 57.1033 176.584 56.8968C176.996 56.6902 177.409 56.6902 177.821 56.6902C178.233 56.7935 178.543 56.8968 178.955 57.2065C179.264 57.4131 179.471 57.8261 179.677 58.2391C179.883 58.6522 179.883 59.0652 179.78 59.5815C179.574 60.0978 179.367 60.5109 178.955 60.8207C178.543 61.2337 178.234 61.5435 177.924 61.9565C176.996 62.9891 176.275 63.8152 175.553 64.4348C174.935 65.1576 174.316 65.7772 173.801 66.2935C173.285 66.8098 172.873 67.2228 172.461 67.6359C172.048 68.0489 171.636 68.3587 171.224 68.6685C170.09 69.5978 168.75 70.6305 166.997 71.5598C165.348 72.4892 163.595 73.212 161.843 73.7283C160.091 74.2446 158.338 74.3478 156.792 74.1413C155.143 73.9348 153.802 73.0055 152.772 71.4565C151.844 70.1141 151.535 68.5652 151.535 67.0163C151.638 65.3642 151.947 63.8152 152.462 62.3696C153.287 59.9946 154.524 57.7228 156.173 55.6576C157.823 53.5924 159.575 51.6305 161.534 50.0815C162.565 49.2555 163.595 48.5326 164.936 47.9131C166.276 46.7772 167.513 46.4674 168.853 46.4674Z" fill="#E0FBFC"/>
<path d="M175.347 69.4945C174.316 68.2554 173.698 66.913 173.595 65.3641C173.492 63.8152 173.698 62.2663 174.11 60.7173C174.626 59.2717 175.141 58.0326 175.966 56.7934C176.687 55.5543 177.512 54.3152 178.44 53.2826C179.367 52.1467 180.398 51.1141 181.429 50.1847C182.46 49.2554 183.594 48.326 184.625 47.6032C185.449 46.9837 186.377 46.4674 187.511 45.951C188.645 45.4347 189.882 45.0217 191.119 44.7119C192.356 44.4021 193.49 44.4021 194.624 44.6087C195.758 44.8152 196.583 45.4347 197.304 46.3641C197.923 47.1902 198.129 48.1195 197.923 49.1521C197.717 50.1847 197.407 51.1141 196.995 52.0434C196.067 53.9021 194.83 55.5543 193.284 57.1032C191.738 58.6521 189.985 59.8913 188.233 60.8206C186.79 61.5434 185.449 61.9565 183.903 62.2663C182.46 62.576 180.914 62.4728 179.471 62.0597C179.264 62.6793 179.058 63.1956 178.955 63.7119C178.852 64.2282 178.852 64.7445 178.955 65.2608C179.058 65.7771 179.264 66.1902 179.574 66.6032C179.883 67.0163 180.398 67.3261 181.12 67.4293C182.357 67.7391 183.8 67.5326 185.449 66.8097C186.996 66.0869 188.542 65.0543 190.088 63.9184C191.635 62.6793 192.975 61.4402 194.315 60.201C195.552 58.8587 196.583 57.826 197.201 57.1032C197.51 56.6902 197.82 56.2771 198.129 55.8641C198.438 55.451 198.85 55.038 199.263 54.8315C199.675 54.625 200.087 54.625 200.5 54.625C200.912 54.7282 201.325 54.8315 201.634 55.1413C201.943 55.451 202.149 55.7608 202.355 56.0706C202.562 56.4837 202.562 56.7934 202.458 57.2065C202.355 57.6195 202.149 58.1358 201.737 58.5489C201.324 58.9619 201.015 59.4782 200.706 59.788C198.954 61.75 197.613 63.1956 196.686 64.125C195.758 65.0543 194.83 65.8804 194.109 66.5C192.975 67.5326 191.531 68.4619 189.882 69.4945C188.233 70.4239 186.583 71.25 184.831 71.663C183.078 72.1793 181.429 72.2826 179.677 72.0761C178.027 71.7663 176.584 70.9402 175.347 69.4945ZM184.006 57.6195C185.862 57.1032 187.408 56.2771 188.851 55.038C190.294 53.7989 191.531 52.5597 192.459 51.2173C192.768 50.701 193.078 50.1847 193.181 49.6684C193.284 49.1521 193.284 48.8424 192.975 48.7391C191.738 49.2554 190.501 49.7717 189.47 50.5978C188.336 51.3206 187.305 52.1467 186.377 53.076C184.728 54.5217 183.285 56.1739 182.048 57.826C182.666 57.826 183.285 57.7228 184.006 57.6195Z" fill="#E0FBFC"/>
<path d="M212.87 68.9782C211.736 69.0815 210.808 68.9782 209.984 68.5652C209.262 68.1521 208.643 67.5326 208.231 66.8097C207.819 66.0869 207.716 65.1576 207.613 64.2282C207.613 63.2989 207.716 62.3695 208.128 61.5434C208.747 59.4782 209.777 57.6195 211.118 55.9674C212.458 54.3152 213.798 52.663 215.035 51.0108C215.241 50.8043 215.55 50.3913 216.066 49.875C216.581 49.2554 216.993 48.7391 217.406 48.1195C217.818 47.6032 218.024 47.0869 218.127 46.7771C218.23 46.4674 217.921 46.4674 217.303 46.6739C216.169 47.1902 215.138 47.8097 214.107 48.4293C213.076 49.1521 212.045 49.875 211.118 50.701C210.087 51.6304 208.953 52.663 207.922 53.5924C206.891 54.625 205.963 55.6576 205.036 56.6902C204.52 57.3097 203.902 58.0326 203.283 58.9619C202.665 59.8913 202.046 60.8206 201.428 61.75C200.809 62.6793 200.191 63.7119 199.572 64.6413C198.954 65.6739 198.438 66.5 197.923 67.326C197.717 67.6358 197.51 67.9456 197.407 68.3586C197.304 68.6684 196.995 68.9782 196.686 69.1847C195.964 69.4945 195.139 69.4945 194.315 69.1847C193.49 68.875 192.872 68.3587 192.562 67.6358C192.356 67.2228 192.356 66.913 192.459 66.5C192.562 66.1902 192.768 65.7771 192.872 65.4674L194.315 62.3695C194.83 61.2337 195.449 60.0978 196.067 58.9619C196.686 57.826 197.51 56.4837 198.335 55.1413C199.16 53.7989 200.191 52.25 201.428 50.4945C202.561 48.7391 204.005 46.7771 205.551 44.6087C205.757 44.4021 205.963 44.1956 206.169 43.9891C206.376 43.7826 206.582 43.576 206.788 43.4728C207.613 43.0597 208.437 43.163 209.159 43.7826C209.984 44.4021 210.396 45.125 210.602 45.951C211.736 45.0217 212.973 44.0924 214.313 43.3695C215.55 42.6467 216.993 42.0271 218.643 41.6141C219.777 41.4076 220.704 41.3043 221.323 41.6141C222.044 41.8206 222.56 42.2337 222.972 42.75C223.488 43.2663 223.797 43.8858 223.9 44.5054C224.003 45.125 224.003 45.7445 223.797 46.4674C223.694 47.0869 223.385 47.7065 223.075 48.326C222.766 48.9456 222.457 49.4619 222.148 50.0815C220.911 52.0434 219.467 53.9021 218.024 55.5543C216.581 57.2065 215.241 58.9619 214.107 60.8206C213.901 61.1304 213.695 61.5434 213.488 61.9565C213.282 62.3695 213.076 62.7826 212.973 63.1956C212.87 63.6087 212.87 63.8152 212.87 64.0217C212.973 64.2282 213.179 64.2282 213.592 63.9184C214.21 63.6087 214.829 63.1956 215.55 62.576C216.272 62.0597 216.89 61.4402 217.612 60.7173C218.23 60.0978 218.849 59.375 219.467 58.6521C220.086 57.9293 220.704 57.3097 221.22 56.5869L223.282 54.1087C223.591 53.7989 223.797 53.3858 224.106 52.9728C224.415 52.5597 224.828 52.25 225.24 51.9402C225.962 51.5271 226.786 51.6304 227.508 52.0434C228.23 52.4565 228.539 53.1793 228.436 54.0054C228.333 54.5217 228.23 54.9347 227.92 55.2445C227.611 55.5543 227.302 55.9673 226.993 56.3804L224.931 58.8587C224.312 59.5815 223.694 60.4076 222.972 61.1304C222.354 61.8532 221.632 62.576 220.911 63.2989C219.777 64.538 218.54 65.6739 217.096 66.7065C216.272 68.0489 214.622 68.6684 212.87 68.9782Z" fill="#E0FBFC"/>
<path d="M227.199 67.7391C226.271 67.8424 225.343 67.8424 224.519 67.5326C223.591 67.2228 222.972 66.7065 222.457 65.8804C221.838 65.0544 221.529 64.125 221.529 62.9891C221.529 61.9565 221.632 60.9239 221.941 59.8913C222.457 57.7228 223.282 55.6576 224.622 53.6957C225.859 51.7337 227.096 49.875 228.436 48.0163C229.054 47.087 229.673 46.1576 230.291 45.3315C230.91 44.4022 231.631 43.5761 232.353 42.75C232.662 42.337 232.971 42.0272 233.384 41.6141C233.693 41.2011 234.105 40.9946 234.621 40.8913C235.446 40.7881 236.167 41.0978 236.683 41.7174C237.198 42.337 237.61 42.9565 237.713 43.6794C237.713 44.0924 237.713 44.4022 237.61 44.6087C237.507 44.8152 237.301 45.125 237.095 45.4348C235.652 47.2935 234.209 49.1522 232.765 51.0109C231.425 52.8696 230.085 54.7283 228.951 56.7935C228.127 58.1359 227.508 59.375 227.199 60.3044C226.889 61.337 226.786 61.9565 226.993 62.3696C227.199 62.7826 227.611 62.7826 228.333 62.3696C229.054 61.9565 229.982 61.1304 231.116 59.8913C231.734 59.1685 232.456 58.3424 233.281 57.4131C234.105 56.4837 235.239 55.0381 236.889 53.1794C237.198 52.7663 237.507 52.4565 237.816 52.0435C238.126 51.6305 238.435 51.3207 238.847 51.1141C239.569 50.7011 240.394 50.8044 241.115 51.2174C241.837 51.6304 242.146 52.3533 242.043 53.1794C241.94 53.6957 241.837 54.1087 241.528 54.5218C241.218 54.8315 240.909 55.2446 240.6 55.6576L238.641 58.1359C238.023 58.8587 237.404 59.6848 236.786 60.4076C236.167 61.1304 235.446 61.9565 234.827 62.6794C233.487 64.2283 232.25 65.4674 231.013 66.2935C229.776 67.0163 228.539 67.5326 227.199 67.7391ZM241.734 35.1087C240.806 35.212 240.084 34.9022 239.363 34.2826C238.641 33.6631 238.229 32.9402 238.229 32.1141C238.126 31.1848 238.435 30.462 238.95 29.7391C239.569 29.0163 240.291 28.6033 241.218 28.6033C242.043 28.5 242.868 28.8098 243.589 29.3261C244.311 29.9457 244.723 30.6685 244.826 31.5978C244.929 32.4239 244.62 33.25 244.105 33.9728C243.383 34.5924 242.661 35.0055 241.734 35.1087Z" fill="#E0FBFC"/>
<path d="M253.176 38.7229C254.31 38.7229 255.341 38.8262 256.372 39.2392C257.403 39.549 258.124 40.2718 258.537 41.4077C258.743 42.0272 258.949 42.5436 258.846 43.1631C258.846 43.7827 258.743 44.4022 258.64 45.0218C258.537 45.6414 258.33 46.2609 258.021 46.7772C257.712 47.3968 257.506 47.9131 257.196 48.3262C256.887 48.9457 256.475 49.462 256.062 49.9783C255.65 50.4946 255.238 51.0109 254.929 51.5272C254.619 51.837 254.207 52.2501 253.795 52.6631C253.382 53.0762 252.867 53.2827 252.351 53.1794C251.836 53.0762 251.424 52.9729 251.011 52.6631C250.599 52.3533 250.29 52.0436 249.98 51.6305C249.774 51.3207 249.671 51.0109 249.568 50.5979C249.465 50.1849 249.465 49.7718 249.671 49.462C249.774 49.2555 249.877 48.9457 250.187 48.7392C250.393 48.5327 250.702 48.2229 250.908 48.0164C251.424 47.5001 251.939 46.9838 252.455 46.4675C252.867 45.9512 253.279 45.4349 253.588 45.0218C253.898 44.6088 254.104 44.1957 254.207 43.8859C254.31 43.5762 254.31 43.3696 254.104 43.2664C253.795 43.1631 253.279 43.2664 252.661 43.6794C252.042 44.0925 251.321 44.5055 250.599 45.1251C249.877 45.6414 249.259 46.2609 248.743 46.7772C248.125 47.2936 247.816 47.7066 247.61 47.9131C246.063 49.462 244.723 51.3207 243.486 53.2827C243.074 54.0055 242.661 54.8316 242.249 55.5544C241.837 56.2772 241.631 57.1033 241.424 58.0327C241.321 58.7555 241.218 59.4783 241.321 60.2012C241.424 60.924 241.837 61.4403 242.558 61.7501C243.177 62.0599 243.898 62.0599 244.723 61.8533C245.548 61.6468 246.166 61.4403 246.785 61.2338C248.537 60.6142 250.393 59.4783 252.351 57.9294C254.207 56.3805 256.372 54.212 258.846 51.424C259.155 51.0109 259.464 50.5979 259.774 50.1849C260.083 49.7718 260.495 49.3588 260.907 49.1522C261.32 48.9457 261.732 48.9457 262.144 48.9457C262.557 49.049 262.866 49.1522 263.278 49.462C263.588 49.6686 263.794 50.0816 264 50.4946C264.206 50.9077 264.206 51.3207 264.103 51.837C263.897 52.3533 263.691 52.7664 263.278 53.0762C262.866 53.4892 262.557 53.799 262.248 54.212C261.32 55.2446 260.598 56.0707 259.877 56.6903C259.258 57.4131 258.64 58.0327 258.124 58.549C257.609 59.0653 257.196 59.4783 256.784 59.8914C256.372 60.3044 255.959 60.6142 255.547 60.924C254.413 61.8533 253.073 62.8859 251.321 63.8153C249.671 64.7446 247.919 65.4675 246.166 65.9838C244.414 66.5001 242.661 66.6033 241.115 66.3968C239.466 66.1903 238.126 65.2609 237.095 63.712C236.167 62.3696 235.858 60.8207 235.858 59.2718C235.961 57.6196 236.27 56.0707 236.786 54.6251C237.61 52.2501 238.847 49.9783 240.497 47.9131C242.146 45.8479 243.898 43.8859 245.857 42.337C246.888 41.5109 247.919 40.7881 249.259 40.1686C250.496 39.1359 251.836 38.7229 253.176 38.7229Z" fill="#E0FBFC"/>
<path d="M104.425 50.7011C104.116 51.4239 103.806 52.1467 103.394 52.7663C102.982 53.3859 102.569 54.0054 102.157 54.625C101.745 55.2446 101.229 55.8641 100.714 56.4837C100.198 57.1033 99.6829 57.6196 99.1675 58.2391C98.6521 58.7554 98.1366 59.2717 97.6212 59.7881C97.1058 60.3044 96.4873 60.7174 95.7657 61.1304C95.4564 61.337 95.1472 61.4402 94.7349 61.5435C94.4256 61.6467 94.0133 61.75 93.704 61.75C93.3948 61.75 92.9824 61.75 92.6732 61.6467C92.3639 61.5435 92.0547 61.337 91.7454 61.1304C91.4361 60.8207 91.23 60.5109 91.1269 60.2011C91.0238 59.8913 90.9207 59.4783 90.9207 59.1685C90.9207 58.7554 90.9207 58.4457 91.0238 58.0326C91.1269 57.6196 91.23 57.3098 91.3331 57C91.6423 56.2772 91.9516 55.6576 92.3639 54.9348C92.7762 54.3152 93.1886 53.6957 93.6009 53.0761C94.0133 52.4565 94.5287 51.837 94.941 51.2174C95.4564 50.5978 95.9719 50.0815 96.4873 49.462C97.0027 48.9457 97.5181 48.4294 98.0336 48.0163C98.549 47.6033 99.1675 47.1902 99.786 46.7772C100.301 46.4674 100.92 46.2609 101.538 46.1576C102.157 45.9511 102.775 46.0544 103.394 46.2609C103.703 46.3641 103.909 46.5707 104.219 46.7772C104.425 46.9837 104.631 47.2935 104.734 47.6033C104.94 48.1196 104.94 48.6359 104.837 49.1522C104.734 49.7717 104.631 50.288 104.425 50.7011ZM103.188 48.0163C103.188 47.9131 103.085 47.8098 102.982 47.7065C102.879 47.6033 102.775 47.6033 102.672 47.6033C102.569 47.6033 102.363 47.6033 102.26 47.6033C102.157 47.6033 102.054 47.7065 101.951 47.7065C101.642 47.8098 101.435 47.9131 101.126 48.0163C100.92 48.1196 100.611 48.3261 100.405 48.4294C99.8891 48.7391 99.4768 49.0489 99.0644 49.462C98.6521 49.875 98.2397 50.1848 97.8274 50.5978C97.4151 51.0109 97.1058 51.4239 96.6935 51.9402C96.2811 52.4565 95.9719 52.8696 95.6626 53.2826C95.3534 53.6957 95.0441 54.212 94.6318 54.7283C94.3225 55.2446 94.0133 55.6576 93.704 56.1739C93.4978 56.6902 93.1886 57.1033 92.9824 57.7228C92.7762 58.2391 92.6732 58.7554 92.6732 59.375C92.6732 59.6848 92.7762 59.8913 92.8793 60.0978C92.9824 60.3044 93.2917 60.3044 93.6009 60.3044C93.9102 60.2011 94.1163 60.2011 94.4256 59.9946C94.6318 59.8913 94.941 59.6848 95.1472 59.5815C95.6626 59.2717 96.075 58.8587 96.4873 58.5489C96.8996 58.1359 97.312 57.8261 97.7243 57.3098C98.1367 56.8967 98.549 56.4837 98.8582 56.0707C99.2706 55.6576 99.5798 55.1413 99.9922 54.7283C100.301 54.3152 100.714 53.7989 101.023 53.3859C101.332 52.9728 101.642 52.4565 101.951 51.9402C102.157 51.5272 102.466 51.1141 102.672 50.7011C102.879 50.288 103.085 49.7717 103.188 49.3587C103.188 49.2554 103.291 49.0489 103.291 48.7391C103.291 48.4294 103.291 48.2228 103.188 48.0163Z" fill="#EE6C4D"/>
<path d="M117.62 55.6576C117.207 56.1739 116.898 56.5869 116.486 57C116.073 57.413 115.661 57.8261 115.249 58.2391C114.836 58.6521 114.527 58.9619 114.012 59.375C113.599 59.788 113.084 59.9945 112.465 59.9945C111.95 59.9945 111.538 59.8913 111.228 59.4782C110.919 59.1684 110.713 58.6521 110.713 58.1358C110.713 57.8261 110.713 57.6195 110.816 57.3097C110.919 57 111.022 56.7934 111.125 56.4837C111.228 56.1739 111.332 55.9674 111.538 55.7608C111.641 55.5543 111.847 55.2445 111.95 55.038C112.569 54.0054 113.29 53.0761 114.012 52.25C114.733 51.3206 115.352 50.3913 115.97 49.3587C116.073 49.1521 116.28 48.9456 116.383 48.6358C116.486 48.4293 116.589 48.1195 116.692 47.913C116.795 47.7065 116.795 47.6032 116.898 47.2934C117.001 46.9837 117.001 46.8804 117.104 46.6739C117.104 46.4674 117.104 46.3641 117.001 46.2608C116.898 46.1576 116.692 46.1576 116.486 46.2608C116.073 46.3641 115.764 46.5706 115.352 46.8804C115.043 47.1902 114.733 47.3967 114.424 47.7065C113.599 48.5326 112.775 49.3587 112.053 50.288C111.332 51.2174 110.61 52.1467 109.888 53.0761C109.167 54.0054 108.445 55.038 107.827 55.9674C107.105 57 106.487 57.9293 105.868 58.9619L105.353 59.6847C105.25 59.788 105.25 59.8913 105.146 59.9945C105.043 60.0978 105.043 60.0978 104.837 60.2011C104.631 60.3043 104.425 60.3043 104.116 60.2011C103.806 60.0978 103.703 59.9945 103.6 59.6847C103.497 59.5815 103.497 59.4782 103.497 59.375C103.497 59.2717 103.6 59.1684 103.6 59.0652L104.012 58.2391C104.528 57.3098 105.043 56.5869 105.559 55.8641C106.074 55.1413 106.487 54.5217 106.796 53.9021C107.208 53.2826 107.517 52.7663 107.93 52.25C108.239 51.7337 108.651 51.2174 108.961 50.7011C109.27 50.288 109.579 49.7717 109.888 49.2554C110.198 48.7391 110.507 48.2228 110.713 47.7065C110.816 47.2934 110.816 46.9837 110.713 46.8804C110.61 46.7771 110.404 46.7771 110.198 46.7771C109.991 46.8804 109.682 46.9837 109.373 47.0869C109.064 47.1902 108.857 47.3967 108.754 47.5C108.239 47.8097 107.827 48.1195 107.414 48.4293C107.002 48.7391 106.693 49.1521 106.383 49.6684C106.074 50.1847 105.868 50.5978 105.662 51.1141C105.559 51.6304 105.559 52.1467 105.765 52.663C105.868 52.7663 105.868 52.9728 105.765 53.0761C105.662 53.1793 105.662 53.2826 105.559 53.3858C105.456 53.4891 105.353 53.4891 105.146 53.5924C105.043 53.5924 104.837 53.5924 104.734 53.4891C104.425 53.3858 104.219 53.1793 104.116 52.8695C104.012 52.5598 103.909 52.25 103.909 51.9402C103.909 51.4239 103.909 50.8043 104.116 50.288C104.322 49.7717 104.528 49.2554 104.837 48.8424C105.146 48.4293 105.559 47.913 105.971 47.6032C106.383 47.2934 106.796 46.8804 107.208 46.5706C107.724 46.2608 108.239 45.9511 108.754 45.7445C109.27 45.538 109.888 45.4347 110.507 45.4347C110.713 45.4347 111.022 45.538 111.228 45.538C111.435 45.6413 111.744 45.7445 111.95 45.8478C112.156 45.9511 112.362 46.1576 112.465 46.3641C112.569 46.5706 112.672 46.7771 112.672 47.0869C113.084 46.6739 113.393 46.3641 113.806 46.0543C114.218 45.7445 114.63 45.4347 115.146 45.2282C115.558 45.0217 116.073 44.9184 116.589 44.8152C117.104 44.8152 117.62 44.9184 118.032 45.2282C118.444 45.538 118.651 45.8478 118.754 46.3641C118.857 46.7771 118.754 47.2934 118.651 47.7065C118.547 48.1195 118.341 48.6358 118.135 49.0489C117.929 49.4619 117.723 49.875 117.414 50.288C116.898 51.1141 116.383 51.9402 115.764 52.663C115.146 53.3858 114.63 54.2119 114.012 55.038C113.702 55.4511 113.496 55.8641 113.187 56.1739C112.878 56.5869 112.672 57 112.465 57.413C112.362 57.5163 112.362 57.7228 112.259 57.9293C112.259 58.1358 112.156 58.2391 112.259 58.3424C112.259 58.4456 112.362 58.5489 112.465 58.5489C112.569 58.5489 112.775 58.4456 112.981 58.2391C113.187 58.1358 113.393 57.9293 113.599 57.7228C113.806 57.5163 114.115 57.2065 114.321 57C114.527 56.6902 114.836 56.3804 115.146 56.0706C115.455 55.7608 115.661 55.4511 115.97 55.1413C116.073 55.038 116.073 55.038 116.176 54.9348C116.28 54.8315 116.28 54.7282 116.383 54.7282C116.589 54.625 116.692 54.625 116.898 54.625C117.104 54.625 117.207 54.7282 117.31 54.9348C117.414 55.038 117.517 55.2445 117.517 55.3478C117.723 55.4511 117.723 55.5543 117.62 55.6576Z" fill="#EE6C4D"/>
</g>
<defs>
<clipPath id="clip0">
<rect width="264" height="76" fill="white"/>
</clipPath>
</defs>
</svg>
